[gd_scene load_steps=2 format=3 uid="uid://i2ylykku870x"]

[ext_resource type="Script" path="res://components/vfx/particles/shockwave/shockwave.gd" id="1_53r0l"]

[node name="Shockwave" type="Node2D"]
script = ExtResource("1_53r0l")
